…
``` r
trash_combine = bind_rows(mr_trash, professor_trash, gwynnda_trash) %>% 
  relocate(type)
```

There are 1030 observations and 15 columns in the resulting data set. By
using the print function, we can see the first couple rows of the
combined data set:

``` r
print(trash_combine)
```

    ## # A tibble: 1,030 × 15
    ##    type  dumpster month  year date                weight_tons volume_cubic_yards
    ##    <chr>    <dbl> <chr> <dbl> <dttm>                    <dbl>              <dbl>
    ##  1 mr_t…        1 May    2014 2014-05-16 00:00:00        4.31                 18
    ##  2 mr_t…        2 May    2014 2014-05-16 00:00:00        2.74                 13
    ##  3 mr_t…        3 May    2014 2014-05-16 00:00:00        3.45                 15
    ##  4 mr_t…        4 May    2014 2014-05-17 00:00:00        3.1                  15
    ##  5 mr_t…        5 May    2014 2014-05-17 00:00:00        4.06                 18
    ##  6 mr_t…        6 May    2014 2014-05-20 00:00:00        2.71                 13
    ##  7 mr_t…        7 May    2014 2014-05-21 00:00:00        1.91                  8
    ##  8 mr_t…        8 May    2014 2014-05-28 00:00:00        3.7                  16
    ##  9 mr_t…        9 June   2014 2014-06-05 00:00:00        2.52                 14
    ## 10 mr_t…       10 June   2014 2014-06-11 00:00:00        3.76                 18
    ## # ℹ 1,020 more rows
    ## # ℹ 8 more variables: plastic_bottles <dbl>, polystyrene <dbl>,
    ## #   cigarette_butts <dbl>, glass_bottles <dbl>, plastic_bags <dbl>,
    ## #   wrappers <dbl>, sports_balls <int>, homes_powered <dbl>
…
